%YAML 1.1
%TAG !u! tag:unity3d.com,2011:
--- !u!1001 &1478877807830174616
PrefabInstance:
  m_ObjectHideFlags: 0
  serializedVersion: 2
  m_Modification:
    m_TransformParent: {fileID: 0}
    m_Modifications:
    - target: {fileID: 219420090344367538, guid: ce7bd94a114de4949be6413341ae7bf7, type: 3}
      propertyPath: m_RootOrder
      value: 0
      objectReference: {fileID: 0}
    - target: {fileID: 219420090344367538, guid: ce7bd94a114de4949be6413341ae7bf7, type: 3}
      propertyPath: m_LocalPosition.x
      value: 2.7798886
      objectReference: {fileID: 0}
    - target: {fileID: 219420090344367538, guid: ce7bd94a114de4949be6413341ae7bf7, type: 3}
      propertyPath: m_LocalPosition.y
      value: 1.1045606
      objectReference: {fileID: 0}
    - target: {fileID: 219420090344367538, guid: ce7bd94a114de4949be6413341ae7bf7, type: 3}
      propertyPath: m_LocalPosition.z
      value: 8.203708
      objectReference: {fileID: 0}
    - target: {fileID: 219420090344367538, guid: ce7bd94a114de4949be6413341ae7bf7, type: 3}
      propertyPath: m_LocalRotation.w
      value: 0.50000024
      objectReference: {fileID: 0}
    - target: {fileID: 219420090344367538, guid: ce7bd94a114de4949be6413341ae7bf7, type: 3}
      propertyPath: m_LocalRotation.x
      value: -0.50000024
      objectReference: {fileID: 0}
    - target: {fileID: 219420090344367538, guid: ce7bd94a114de4949be6413341ae7bf7, type: 3}
      propertyPath: m_LocalRotation.y
      value: -0.49999976
      objectReference: {fileID: 0}
    - target: {fileID: 219420090344367538, guid: ce7bd94a114de4949be6413341ae7bf7, type: 3}
      propertyPath: m_LocalRotation.z
      value: -0.4999998
      objectReference: {fileID: 0}
    - target: {fileID: 219420090344367538, guid: ce7bd94a114de4949be6413341ae7bf7, type: 3}
      propertyPath: m_LocalEulerAnglesHint.x
      value: 0
      objectReference: {fileID: 0}
    - target: {fileID: 219420090344367538, guid: ce7bd94a114de4949be6413341ae7bf7, type: 3}
      propertyPath: m_LocalEulerAnglesHint.y
      value: 0
      objectReference: {fileID: 0}
    - target: {fileID: 219420090344367538, guid: ce7bd94a114de4949be6413341ae7bf7, type: 3}
      propertyPath: m_LocalEulerAnglesHint.z
      value: 0
      objectReference: {fileID: 0}
    - target: {fileID: 1972649105993489848, guid: ce7bd94a114de4949be6413341ae7bf7, type: 3}
      propertyPath: m_Name
      value: Box
      objectReference: {fileID: 0}
    m_RemovedComponents: []
  m_SourcePrefab: {fileID: 100100000, guid: ce7bd94a114de4949be6413341ae7bf7, type: 3}
