%YAML 1.1
%TAG !u! tag:unity3d.com,2011:
--- !u!1001 &5782341578075537682
PrefabInstance:
  m_ObjectHideFlags: 0
  serializedVersion: 2
  m_Modification:
    m_TransformParent: {fileID: 0}
    m_Modifications:
    - target: {fileID: 1403957448968237045, guid: 01bebcb6fb5a130188937795daddd2c3, type: 3}
      propertyPath: m_RootOrder
      value: 0
      objectReference: {fileID: 0}
    - target: {fileID: 1403957448968237045, guid: 01bebcb6fb5a130188937795daddd2c3, type: 3}
      propertyPath: m_LocalScale.x
      value: 1.3999996
      objectReference: {fileID: 0}
    - target: {fileID: 1403957448968237045, guid: 01bebcb6fb5a130188937795daddd2c3, type: 3}
      propertyPath: m_LocalScale.z
      value: 1.3999996
      objectReference: {fileID: 0}
    - target: {fileID: 1403957448968237045, guid: 01bebcb6fb5a130188937795daddd2c3, type: 3}
      propertyPath: m_LocalPosition.x
      value: 12.339059
      objectReference: {fileID: 0}
    - target: {fileID: 1403957448968237045, guid: 01bebcb6fb5a130188937795daddd2c3, type: 3}
      propertyPath: m_LocalPosition.y
      value: -0.6480427
      objectReference: {fileID: 0}
    - target: {fileID: 1403957448968237045, guid: 01bebcb6fb5a130188937795daddd2c3, type: 3}
      propertyPath: m_LocalPosition.z
      value: 2047.877
      objectReference: {fileID: 0}
    - target: {fileID: 1403957448968237045, guid: 01bebcb6fb5a130188937795daddd2c3, type: 3}
      propertyPath: m_LocalRotation.w
      value: 0.6127037
      objectReference: {fileID: 0}
    - target: {fileID: 1403957448968237045, guid: 01bebcb6fb5a130188937795daddd2c3, type: 3}
      propertyPath: m_LocalRotation.x
      value: -0
      objectReference: {fileID: 0}
    - target: {fileID: 1403957448968237045, guid: 01bebcb6fb5a130188937795daddd2c3, type: 3}
      propertyPath: m_LocalRotation.y
      value: -0.79031277
      objectReference: {fileID: 0}
    - target: {fileID: 1403957448968237045, guid: 01bebcb6fb5a130188937795daddd2c3, type: 3}
      propertyPath: m_LocalRotation.z
      value: -0
      objectReference: {fileID: 0}
    - target: {fileID: 1403957448968237045, guid: 01bebcb6fb5a130188937795daddd2c3, type: 3}
      propertyPath: m_LocalEulerAnglesHint.x
      value: 0
      objectReference: {fileID: 0}
    - target: {fileID: 1403957448968237045, guid: 01bebcb6fb5a130188937795daddd2c3, type: 3}
      propertyPath: m_LocalEulerAnglesHint.y
      value: -104.43
      objectReference: {fileID: 0}
    - target: {fileID: 1403957448968237045, guid: 01bebcb6fb5a130188937795daddd2c3, type: 3}
      propertyPath: m_LocalEulerAnglesHint.z
      value: 0
      objectReference: {fileID: 0}
    - target: {fileID: 1742905631912998223, guid: 01bebcb6fb5a130188937795daddd2c3, type: 3}
      propertyPath: m_Name
      value: BirchTree Variant 6 (1)
      objectReference: {fileID: 0}
    m_RemovedComponents: []
  m_SourcePrefab: {fileID: 100100000, guid: 01bebcb6fb5a130188937795daddd2c3, type: 3}
